{
    "languajes": [
        "Ingles",
        "Chino Mandarin",
        "Hindi",
        "Espanol",
        "Frances",
        "Arabe",
        "Bengali",
        "Ruso",
        "Protugues",
        "Urdu",
        "Indonesio",
        "Aleman",
        "Japones",
        "Marati",
        "Telugu",
        "Turco",
        "Chino Cantones",
        "Vietnamita",
        "Tamil",
        "Chino wu",
        "Coreano",
        "Persa irani",
        "Hausa",
        "Arabe Egipcio",
        "Suajili",
        "Javanes",
        "Italiano",
        "Panyabi occidental",
        "Guyarati",
        "Tailandes",
        "Amarico",
        "Canares",
        "Chino min nan"
    ]
}